sim/i2c_waveform.vcd
$date
	Sun Apr 19 12:16:11 2026
$end
$version
	Icarus Verilog
$end
$timescale
	1ps
$end
$scope module tb_i2c $end
$var wire 1 ! scl_bus $end
$var wire 1 " sda_bus $end
$var wire 1 # slave_sda_oe $end
$var wire 1 $ master_sda_oe $end
$var wire 1 % master_scl_oe $end
$var wire 1 & master_irq $end
$var wire 32 ' bus_rdata [31:0] $end
$var parameter 5 ( ADDR_CMD $end
$var parameter 5 ) ADDR_CTRL $end
$var parameter 5 * ADDR_PRESCALE $end
$var parameter 5 + ADDR_RX_DATA $end
$var parameter 5 , ADDR_STATUS $end
$var parameter 5 - ADDR_TX_DATA $end
$var parameter 32 . CLK_PERIOD $end
$var parameter 32 / CMD_NACK $end
$var parameter 32 0 CMD_READ $end
$var parameter 32 1 CMD_START $end
$var parameter 32 2 CMD_STOP $end
$var parameter 32 3 CMD_WRITE $end
$var parameter 16 4 PRESCALE $end
$var parameter 7 5 SLAVE_ADDR $end
$var parameter 32 6 TIMEOUT_US $end
$var reg 5 7 bus_addr [4:0] $end
$var reg 32 8 bus_wdata [31:0] $end
$var reg 1 9 bus_we $end
$var reg 1 : clk $end
$var reg 32 ; read_data [31:0] $end
$var reg 1 < rst_n $end
$var integer 32 = fail_count [31:0] $end
$var integer 32 > pass_count [31:0] $end
$var integer 32 ? test_num [31:0] $end
$var integer 32 @ tip_result [31:0] $end
$scope module dut_master $end
$var wire 5 A addr [4:0] $end
$var wire 1 B arb_lost $end
$var wire 1 C arb_lost_check $end
$var wire 1 : clk $end
$var wire 1 & irq_o $end
$var wire 1 D prescale_tick $end
$var wire 1 < rst_n $end
$var wire 1 ! scl_i $end
$var wire 1 E scl_o $end
$var wire 1 % scl_oe_o $end
$var wire 1 F scl_sync $end
$var wire 1 " sda_i $end
$var wire 1 G sda_o $end
$var wire 1 $ sda_oe_o $end
$var wire 1 H sda_sync $end
$var wire 1 I start_detect $end
$var wire 1 J stop_detect $end
$var wire 32 K wdata [31:0] $end
$var wire 1 9 we $end
$var wire 1 L tip $end
$var parameter 4 M S_ACK_READ $end
$var parameter 4 N S_ACK_RWAIT $end
$var parameter 4 O S_ACK_SEND $end
$var parameter 4 P S_ACK_WAIT $end
$var parameter 4 Q S_IDLE $end
$var parameter 4 R S_READ_BIT $end
$var parameter 4 S S_READ_WAIT $end
$var parameter 4 T S_START_A $end
$var parameter 4 U S_START_B $end
$var parameter 4 V S_STOP_A $end
$var parameter 4 W S_STOP_B $end
$var parameter 4 X S_STOP_C $end
$var parameter 4 Y S_WRITE_BIT $end
$var parameter 4 Z S_WRITE_WAIT $end
$var reg 1 [ al $end
$var reg 3 \ bit_cnt [2:0] $end
$var reg 1 ] busy $end
$var reg 1 ^ cmd_done_r $end
$var reg 1 _ cmd_nack $end
$var reg 1 ` cmd_read $end
$var reg 1 a cmd_start $end
$var reg 1 b cmd_stop $end
$var reg 1 c cmd_write $end
$var reg 1 d ctrl_en $end
$var reg 1 e ctrl_ien $end
$var reg 1 f irq_flag $end
$var reg 1 g pending_nack $end
$var reg 1 h pending_read $end
$var reg 1 i pending_stop $end
$var reg 1 j pending_write $end
$var reg 16 k prescale_cnt [15:0] $end
$var reg 16 l prescale_reg [15:0] $end
$var reg 32 m rdata [31:0] $end
$var reg 1 n rx_ack $end
$var reg 8 o rx_data_reg [7:0] $end
$var reg 1 p scl_out $end
$var reg 1 q scl_s1 $end
$var reg 1 F scl_s2 $end
$var reg 1 r sda_out $end
$var reg 1 s sda_prev $end
$var reg 1 t sda_s1 $end
$var reg 1 H sda_s2 $end
$var reg 8 u shift_reg [7:0] $end
$var reg 4 v state [3:0] $end
$var reg 8 w tx_data_reg [7:0] $end
$upscope $end
$scope module dut_slave $end
$var wire 1 : clk $end
$var wire 1 < rst_n $end
$var wire 1 x scl_fall $end
$var wire 1 ! scl_i $end
$var wire 1 y scl_rise $end
$var wire 1 " sda_i $end
$var wire 1 z start_det $end
$var wire 1 { stop_det $end
$var parameter 7 | I2C_ADDR $end
$var parameter 4 } S_ADDR_ACK $end
$var parameter 4 ~ S_ADDR_CHECK $end
$var parameter 4 !" S_ADDR_RECV $end
$var parameter 4 "" S_IDLE $end
$var parameter 4 #" S_RD_ACK $end
$var parameter 4 $" S_RD_DATA $end
$var parameter 4 %" S_RD_WAIT $end
$var parameter 4 &" S_WR_ACK $end
$var parameter 4 '" S_WR_CHECK $end
$var parameter 4 (" S_WR_DATA $end
$var reg 4 )" bit_cnt [3:0] $end
$var reg 4 *" mem_ptr [3:0] $end
$var reg 1 +" rw_bit $end
$var reg 1 ," scl_d $end
$var reg 1 -" sda_d $end
$var reg 1 # sda_oe_o $end
$var reg 8 ." shift_reg [7:0] $end
$var reg 4 /" state [3:0] $end
$var integer 32 0" k [31:0] $end
$upscope $end
$scope task bus_read $end
$var reg 5 1" addr [4:0] $end
$var reg 32 2" data [31:0] $end
$upscope $end
$scope task bus_write $end
$var reg 5 3" addr [4:0] $end
$var reg 32 4" data [31:0] $end
$upscope $end
$scope task check $end
$var reg 32 5" actual [31:0] $end
$var reg 32 6" expected [31:0] $end
$var reg 256 7" test_name [255:0] $end
$upscope $end
$scope task wait_tip $end
$var reg 32 8" status [31:0] $end
$var integer 32 9" result [31:0] $end
$var integer 32 :" timeout [31:0] $end
$upscope $end
$upscope $end
$enddefinitions $end
$comment Show the parameter values. $end
$dumpall
b100 ("
b101 '"
b110 &"
b1000 %"
b111 $"
b1001 #"
b0 ""
b1 !"
b10 ~
b11 }
b1001000 |
b100 Z
b11 Y
b1101 X
b1100 W
b1011 V
b10 U
b1 T
b110 S
b101 R
b0 Q
b1000 P
b111 O
b1010 N
b1001 M
b11001000 6
b1001000 5
b100 4
b1000 3
b10 2
b1 1
b100 0
b10000 /
b110010 .
b1000 -
b10100 ,
b1100 +
b0 *
b100 )
b10000 (
$end
#0
$dumpvars
bx :"
bx 9"
bx 8"
bx 7"
bx 6"
bx 5"
bx 4"
bx 3"
bx 2"
bx 1"
b10000 0"
b0 /"
b0 ."
1-"
1,"
0+"
b0 *"
b0 )"
0{
0z
0y
0x
b0 w
b0 v
b0 u
1t
1s
1r
1q
1p
b0 o
0n
b0 m
b0 l
b0 k
0j
0i
0h
0g
0f
0e
0d
0c
0b
0a
0`
0_
0^
0]
b0 \
0[
0L
b0 K
0J
0I
1H
0G
1F
0E
0D
0C
0B
b0 A
bx @
b0 ?
b0 >
b0 =
0<
bx ;
0:
09
b0 8
b0 7
b0 '
0&
0%
0$
0#
1"
1!
$end
#25000
1:
#50000
0:
#75000
1:
#100000
0:
#125000
1:
#150000
0:
#175000
1:
#200000
0:
#225000
1:
#250000
0:
1<
#275000
1:
#300000
0:
#325000
1:
#350000
0:
#375000
1:
#400000
0:
#425000
1:
#450000
0:
#475000
1:
#500000
0:
b100 4"
b0 3"
#525000
19
b100 8
b100 K
1:
#550000
0:
#575000
b100 '
b100 m
b100 l
09
b0 1"
1:
#600000
0:
#625000
1:
#650000
0:
#675000
b11 4"
b100 3"
b1 >
b100 6"
b100 5"
b101000001110010011001010111001101100011011000010110110001100101011100100010000001110111011100100110100101110100011001010010111101110010011001010110000101100100 7"
b100 ;
b100 2"
1:
#700000
0:
#725000
b0 '
b0 m
19
b11 8
b11 K
b100 7
b100 A
1:
#750000
0:
#775000
b11 '
b11 m
1D
1e
1d
09
b100 1"
1:
#800000
0:
#825000
0D
b100 k
1:
#850000
0:
#875000
b11 k
b10100101 4"
b1000 3"
b10 >
b11 6"
b11 5"
b100001101010100010100100100110000100000010001010100111000101011010010010100010101001110 7"
b11 ;
b11 2"
1:
#900000
0:
#925000
b0 '
b0 m
b10 k
19
b10100101 8
b10100101 K
b1000 7
b1000 A
1:
#950000
0:
#975000
b10100101 '
b10100101 m
b10100101 w
b1 k
09
b1000 1"
1:
#1000000
0:
#1025000
1D
b0 k
1:
#1050000
0:
#1075000
0D
b100 k
b10100 1"
b11 >
b10100101 6"
b10100101 5"
b10101000101100001011111010001000100000101010100010000010010000001110111011100100110100101110100011001010010111101110010011001010110000101100100 7"
b10100101 ;
b10100101 2"
1:
#1100000
0:
#1125000
b0 '
b0 m
b11 k
b10100 7
b10100 A
1:
#1150000
0:
#1175000
b10 k
b100 >
b0 6"
b0 5"
b1010011011101000110000101110100011101010111001100100000011010010110010001101100011001010010000000101000010101000100100101010000001111010011000000101001 7"
b0 ;
b0 2"
1:
#1200000
0:
#1225000
b1 k
1:
#1250000
0:
#1275000
1D
b0 k
1:
#1300000
0:
#1325000
0D
b100 k
1:
#1350000
0:
#1375000
b11 k
1:
#1400000
0:
#1425000
b10 k
1:
#1450000
0:
#1475000
b1 k
1:
#1500000
0:
#1525000
1D
b0 k
1:
#1550000
0:
#1575000
0D
b100 k
1:
#1600000
0:
#1625000
b11 k
1:
#1650000
0:
#1675000
b10100101 '
b10100101 m
b10 k
19
b10010000 8
b10010000 K
b1000 7
b1000 A
1:
b10010000 4"
#1700000
0:
#1725000
b10010000 '
b10010000 m
b10010000 w
b1 k
09
b1001 4"
b10000 3"
1:
#1750000
0:
#1775000
1D
b0 '
b0 m
b0 k
19
b1001 8
b1001 K
b10000 7
b10000 A
1:
#1800000
0:
#1825000
b1001 '
b1001 m
0D
1c
1a
b100 k
09
b1 8"
b0 :"
b0 9"
1:
#1850000
0:
#1875000
b1 '
b1 m
0c
0a
1j
1L
b1 v
b11 k
b10100 7
b10100 A
1:
#1900000
0:
#1925000
b10 k
b1 :"
b1 2"
1:
#1950000
0:
#1975000
b1 k
1:
#2000000
0:
#2025000
1D
b0 k
b10 :"
1:
#2050000
0:
#2075000
1C
0D
b10 v
b100 k
1:
#2100000
0:
#2125000
1z
0"
1$
0r
b11 k
b11 :"
1:
#2150000
0:
#2175000
0z
b10 k
0t
b111 )"
b1 /"
0-"
1:
#2200000
0:
#2225000
1I
b1 k
0H
b100 :"
1:
#2250000
0:
#2275000
0I
b10001 '
b10001 m
1D
1]
b0 k
0s
1:
#2300000
0:
#2325000
1x
0!
1%
0C
0D
b111 \
b10010000 u
b11 v
0p
b100 k
b101 :"
b10001 8"
b10001 2"
1:
#2350000
0:
#2375000
1"
0$
0x
1r
b11 k
0q
0,"
1:
#2400000
0:
#2425000
1-"
b10 k
0F
1t
b110 :"
1:
#2450000
0:
#2475000
b1 k
1H
1:
#2500000
0:
#2525000
1D
b0 k
1s
b111 :"
1:
#2550000
0:
#2575000
1C
0D
b100 v
b100 k
1:
#2600000
0:
#2625000
1y
1!
0%
1p
b11 k
b1000 :"
1:
#2650000
0:
#2675000
0y
b10 k
1q
b110 )"
b1 ."
1,"
1:
#2700000
0:
#2725000
b1 k
1F
b1001 :"
1:
#2750000
0:
#2775000
1D
b0 k
1:
#2800000
0:
#2825000
1x
0!
1%
0C
0D
b100000 u
b110 \
b11 v
0p
b100 k
b1010 :"
1:
#2850000
0:
#2875000
0"
1$
0x
0r
b11 k
0q
0,"
1:
#2900000
0:
#2925000
0-"
b10 k
0F
0t
b1011 :"
1:
#2950000
0:
#2975000
b1 k
0H
1:
#3000000
0:
#3025000
1D
b0 k
0s
b1100 :"
1:
#3050000
0:
#3075000
1C
0D
b100 v
b100 k
1:
#3100000
0:
#3125000
1y
1!
0%
1p
b11 k
b1101 :"
1:
#3150000
0:
#3175000
0y
b10 k
1q
b101 )"
b10 ."
1,"
1:
#3200000
0:
#3225000
b1 k
1F
b1110 :"
1:
#3250000
0:
#3275000
1D
b0 k
1:
#3300000
0:
#3325000
1x
0!
1%
0C
0D
b1000000 u
b101 \
b11 v
0p
b100 k
b1111 :"
1:
#3350000
0:
#3375000
0x
b11 k
0q
0,"
1:
#3400000
0:
#3425000
b10 k
0F
b10000 :"
1:
#3450000
0:
#3475000
b1 k
1:
#3500000
0:
#3525000
1D
b0 k
b10001 :"
1:
#3550000
0:
#3575000
1C
0D
b100 v
b100 k
1:
#3600000
0:
#3625000
1y
1!
0%
1p
b11 k
b10010 :"
1:
#3650000
0:
#3675000
0y
b10 k
1q
b100 )"
b100 ."
1,"
1:
#3700000
0:
#3725000
b1 k
1F
b10011 :"
1:
#3750000
0:
#3775000
1D
b0 k
1:
#3800000
0:
#3825000
1x
0!
1%
0C
0D
b10000000 u
b100 \
b11 v
0p
b100 k
b10100 :"
1:
#3850000
0:
#3875000
1"
0$
0x
1r
b11 k
0q
0,"
1:
#3900000
0:
#3925000
1-"
b10 k
0F
1t
b10101 :"
1:
#3950000
0:
#3975000
b1 k
1H
1:
#4000000
0:
#4025000
1D
b0 k
1s
b10110 :"
1:
#4050000
0:
#4075000
1C
0D
b100 v
b100 k
1:
#4100000
0:
#4125000
1y
1!
0%
1p
b11 k
b10111 :"
1:
#4150000
0:
#4175000
0y
b10 k
1q
b11 )"
b1001 ."
1,"
1:
#4200000
0:
#4225000
b1 k
1F
b11000 :"
1:
#4250000
0:
#4275000
1D
b0 k
1:
#4300000
0:
#4325000
1x
0!
1%
0C
0D
b0 u
b11 \
b11 v
0p
b100 k
b11001 :"
1:
#4350000
0:
#4375000
0"
1$
0x
0r
b11 k
0q
0,"
1:
#4400000
0:
#4425000
0-"
b10 k
0F
0t
b11010 :"
1:
#4450000
0:
#4475000
b1 k
0H
1:
#4500000
0:
#4525000
1D
b0 k
0s
b11011 :"
1:
#4550000
0:
#4575000
1C
0D
b100 v
b100 k
1:
#4600000
0:
#4625000
1y
1!
0%
1p
b11 k
b11100 :"
1:
#4650000
0:
#4675000
0y
b10 k
1q
b10 )"
b10010 ."
1,"
1:
#4700000
0:
#4725000
b1 k
1F
b11101 :"
1:
#4750000
0:
#4775000
1D
b0 k
1:
#4800000
0:
#4825000
1x
0!
1%
0C
0D
b10 \
b11 v
0p
b100 k
b11110 :"
1:
#4850000
0:
#4875000
0x
b11 k
0q
0,"
1:
#4900000
0:
#4925000
b10 k
0F
b11111 :"
1:
#4950000
0:
#4975000
b1 k
1:
#5000000
0:
#5025000
1D
b0 k
b100000 :"
1:
#5050000
0:
#5075000
1C
0D
b100 v
b100 k
1:
#5100000
0:
#5125000
1y
1!
0%
1p
b11 k
b100001 :"
1:
#5150000
0:
#5175000
0y
b10 k
1q
b1 )"
b100100 ."
1,"
1:
#5200000
0:
#5225000
b1 k
1F
b100010 :"
1:
#5250000
0:
#5275000
1D
b0 k
1:
#5300000
0:
#5325000
1x
0!
1%
0C
0D
b1 \
b11 v
0p
b100 k
b100011 :"
1:
#5350000
0:
#5375000
0x
b11 k
0q
0,"
1:
#5400000
0:
#5425000
b10 k
0F
b100100 :"
1:
#5450000
0:
#5475000
b1 k
1:
#5500000
0:
#5525000
1D
b0 k
b100101 :"
1:
#5550000
0:
#5575000
1C
0D
b100 v
b100 k
1:
#5600000
0:
#5625000
1y
1!
0%
1p
b11 k
b100110 :"
1:
#5650000
0:
#5675000
0y
b10 k
1q
b0 )"
b1001000 ."
1,"
1:
#5700000
0:
#5725000
b1 k
1F
b100111 :"
1:
#5750000
0:
#5775000
1D
b0 k
1:
#5800000
0:
#5825000
1x
0!
1%
0C
0D
b0 \
b11 v
0p
b100 k
b101000 :"
1:
#5850000
0:
#5875000
0x
b11 k
0q
0,"
1:
#5900000
0:
#5925000
b10 k
0F
b101001 :"
1:
#5950000
0:
#5975000
b1 k
1:
#6000000
0:
#6025000
1D
b0 k
b101010 :"
1:
#6050000
0:
#6075000
1C
0D
b100 v
b100 k
1:
#6100000
0:
#6125000
1y
1!
0%
1p
b11 k
b101011 :"
1:
#6150000
0:
#6175000
0y
b10 k
1q
b10 /"
b10010000 ."
1,"
1:
#6200000
0:
#6225000
b1 k
1F
b101100 :"
1:
#6250000
0:
#6275000
1D
b0 k
1:
#6300000
0:
#6325000
1x
1"
0!
0$
1%
0C
0D
1r
b1001 v
0p
b100 k
b101101 :"
1:
#6350000
0:
#6375000
0"
0x
b11 k
0q
1t
b11 /"
1#
1-"
0,"
1:
#6400000
0:
#6425000
0-"
b10 k
0F
1H
0t
b101110 :"
1:
#6450000
0:
#6475000
b1 k
1s
0H
1:
#6500000
0:
#6525000
1D
b0 k
0s
b101111 :"
1:
#6550000
0:
#6575000
0D
b1010 v
b100 k
1:
#6600000
0:
#6625000
1y
1!
0%
1p
b11 k
b110000 :"
1:
#6650000
0:
#6675000
0y
b10 k
1q
1,"
1:
#6700000
0:
#6725000
b1 k
1F
b110001 :"
1:
#6750000
0:
#6775000
1D
b0 k
1:
#6800000
0:
#6825000
1x
0!
1%
1&
b10010 '
b10010 m
0D
1f
1^
0L
b0 v
0p
b100 k
b110010 :"
1:
#6850000
0:
#6875000
1"
0x
b11 k
0q
0^
b111 )"
b100 /"
0#
0,"
1:
#6900000
0:
#6925000
1-"
b10 k
0F
1t
b0 @
b110011 :"
b10010 8"
b10010 2"
1:
#6950000
0:
#6975000
b1 k
1H
1:
#7000000
0:
#7025000
1D
b0 k
1s
b10100101 4"
b1000 3"
b101 >
b101011101110010011010010111010001100101001000000110000101100100011001000111001000100000010000010100001101001011 7"
b10010 ;
1:
#7050000
0:
#7075000
0D
b10010000 '
b10010000 m
b100 k
19
b10100101 8
b10100101 K
b1000 7
b1000 A
1:
#7100000
0:
#7125000
b10100101 '
b10100101 m
b10100101 w
b11 k
09
b1010 4"
b10000 3"
1:
#7150000
0:
#7175000
b0 '
b0 m
b10 k
19
b1010 8
b1010 K
b10000 7
b10000 A
1:
#7200000
0:
#7225000
b1010 '
b1010 m
1c
1b
b1 k
09
b1 8"
b0 :"
1:
#7250000
0:
#7275000
1D
b10011 '
b10011 m
0b
0c
1i
b111 \
b10100101 u
1L
b11 v
b0 k
b10100 7
b10100 A
1:
#7300000
0:
#7325000
1C
0D
b100 v
b100 k
b1 :"
b10011 8"
b10011 2"
1:
#7350000
0:
#7375000
1y
1!
0%
1p
b11 k
1:
#7400000
0:
#7425000
0y
b110 )"
b100001 ."
1,"
b10 k
1q
b10 :"
1:
#7450000
0:
#7475000
b1 k
1F
1:
#7500000
0:
#7525000
1D
b0 k
b11 :"
1:
#7550000
0:
#7575000
1x
0!
1%
0C
0D
b1001010 u
b110 \
b11 v
0p
b100 k
1:
#7600000
0:
#7625000
0"
1$
0x
0,"
0r
b11 k
0q
b100 :"
1:
#7650000
0:
#7675000
b10 k
0F
0t
0-"
1:
#7700000
0:
#7725000
b1 k
0H
b101 :"
1:
#7750000
0:
#7775000
1D
b0 k
0s
1:
#7800000
0:
#7825000
1C
0D
b100 v
b100 k
b110 :"
1:
#7850000
0:
#7875000
1y
1!
0%
1p
b11 k
1:
#7900000
0:
#7925000
0y
b101 )"
b1000010 ."
1,"
b10 k
1q
b111 :"
1:
#7950000
0:
#7975000
b1 k
1F
1:
#8000000
0:
#8025000
1D
b0 k
b1000 :"
1:
#8050000
0:
#8075000
1x
0!
1%
0C
0D
b10010100 u
b101 \
b11 v
0p
b100 k
1:
#8100000
0:
#8125000
1"
0$
0x
0,"
1r
b11 k
0q
b1001 :"
1:
#8150000
0:
#8175000
b10 k
0F
1t
1-"
1:
#8200000
0:
#8225000
b1 k
1H
b1010 :"
1:
#8250000
0:
#8275000
1D
b0 k
1s
1:
#8300000
0:
#8325000
1C
0D
b100 v
b100 k
b1011 :"
1:
#8350000
0:
#8375000
1y
1!
0%
1p
b11 k
1:
#8400000
0:
#8425000
0y
b100 )"
b10000101 ."
1,"
b10 k
1q
b1100 :"
1:
#8450000
0:
#8475000
b1 k
1F
1:
#8500000
0:
#8525000
1D
b0 k
b1101 :"
1:
#8550000
0:
#8575000
1x
0!
1%
0C
0D
b101000 u
b100 \
b11 v
0p
b100 k
1:
#8600000
0:
#8625000
0"
1$
0x
0,"
0r
b11 k
0q
b1110 :"
1:
#8650000
0:
#8675000
b10 k
0F
0t
0-"
1:
#8700000
0:
#8725000
b1 k
0H
b1111 :"
1:
#8750000
0:
#8775000
1D
b0 k
0s
1:
#8800000
0:
#8825000
1C
0D
b100 v
b100 k
b10000 :"
1:
#8850000
0:
#8875000
1y
1!
0%
1p
b11 k
1:
#8900000
0:
#8925000
0y
b11 )"
b1010 ."
1,"
b10 k
1q
b10001 :"
1:
#8950000
0:
#8975000
b1 k
1F
1:
#9000000
0:
#9025000
1D
b0 k
b10010 :"
1:
#9050000
0:
#9075000
1x
0!
1%
0C
0D
b1010000 u
b11 \
b11 v
0p
b100 k
1:
#9100000
0:
#9125000
0x
0,"
b11 k
0q
b10011 :"
1:
#9150000
0:
#9175000
b10 k
0F
1:
#9200000
0:
#9225000
b1 k
b10100 :"
1:
#9250000
0:
#9275000
1D
b0 k
1:
#9300000
0:
#9325000
1C
0D
b100 v
b100 k
b10101 :"
1:
#9350000
0:
#9375000
1y
1!
0%
1p
b11 k
1:
#9400000
0:
#9425000
0y
b10 )"
b10100 ."
1,"
b10 k
1q
b10110 :"
1:
#9450000
0:
#9475000
b1 k
1F
1:
#9500000
0:
#9525000
1D
b0 k
b10111 :"
1:
#9550000
0:
#9575000
1x
0!
1%
0C
0D
b10100000 u
b10 \
b11 v
0p
b100 k
1:
#9600000
0:
#9625000
1"
0$
0x
0,"
1r
b11 k
0q
b11000 :"
1:
#9650000
0:
#9675000
b10 k
0F
1t
1-"
1:
#9700000
0:
#9725000
b1 k
1H
b11001 :"
1:
#9750000
0:
#9775000
1D
b0 k
1s
1:
#9800000
0:
#9825000
1C
0D
b100 v
b100 k
b11010 :"
1:
#9850000
0:
#9875000
1y
1!
0%
1p
b11 k
1:
#9900000
0:
#9925000
0y
b1 )"
b101001 ."
1,"
b10 k
1q
b11011 :"
1:
#9950000
0:
#9975000
b1 k
1F
1:
#10000000
0:
#10025000
1D
b0 k
b11100 :"
1:
#10050000
0:
#10075000
1x
0!
1%
0C
0D
b1000000 u
b1 \
b11 v
0p
b100 k
1:
#10100000
0:
#10125000
0"
1$
0x
0,"
0r
b11 k
0q
b11101 :"
1:
#10150000
0:
#10175000
b10 k
0F
0t
0-"
1:
#10200000
0:
#10225000
b1 k
0H
b11110 :"
1:
#10250000
0:
#10275000
1D
b0 k
0s
1:
#10300000
0:
#10325000
1C
0D
b100 v
b100 k
b11111 :"
1:
#10350000
0:
#10375000
1y
1!
0%
1p
b11 k
1:
#10400000
0:
#10425000
0y
b0 )"
b1010010 ."
1,"
b10 k
1q
b100000 :"
1:
#10450000
0:
#10475000
b1 k
1F
1:
#10500000
0:
#10525000
1D
b0 k
b100001 :"
1:
#10550000
0:
#10575000
1x
0!
1%
0C
0D
b10000000 u
b0 \
b11 v
0p
b100 k
1:
#10600000
0:
#10625000
1"
0$
0x
0,"
1r
b11 k
0q
b100010 :"
1:
#10650000
0:
#10675000
b10 k
0F
1t
1-"
1:
#10700000
0:
#10725000
b1 k
1H
b100011 :"
1:
#10750000
0:
#10775000
1D
b0 k
1s
1:
#10800000
0:
#10825000
1C
0D
b100 v
b100 k
b100100 :"
1:
#10850000
0:
#10875000
1y
1!
0%
1p
b11 k
1:
#10900000
0:
#10925000
0y
b101 /"
b10100101 ."
1,"
b10 k
1q
b100101 :"
1:
#10950000
0:
#10975000
b1 k
1F
1:
#11000000
0:
#11025000
1D
b0 k
b100110 :"
1:
#11050000
0:
#11075000
1x
0!
1%
0C
0D
b1001 v
0p
b100 k
1:
#11100000
0:
#11125000
0"
0x
b110 /"
1#
b1 *"
0,"
b11 k
0q
b100111 :"
1:
#11150000
0:
#11175000
b10 k
0F
0t
0-"
1:
#11200000
0:
#11225000
b1 k
0H
b101000 :"
1:
#11250000
0:
#11275000
1D
b0 k
0s
1:
#11300000
0:
#11325000
0D
b1010 v
b100 k
b101001 :"
1:
#11350000
0:
#11375000
1y
1!
0%
1p
b11 k
1:
#11400000
0:
#11425000
0y
1,"
b10 k
1q
b101010 :"
1:
#11450000
0:
#11475000
b1 k
1F
1:
#11500000
0:
#11525000
1D
b0 k
b101011 :"
1:
#11550000
0:
#11575000
1x
0!
1$
1%
0D
0r
b1011 v
0p
b100 k
1:
#11600000
0:
#11625000
0x
b111 )"
b100 /"
0#
0,"
b11 k
0q
b101100 :"
1:
#11650000
0:
#11675000
b10 k
0F
1:
#11700000
0:
#11725000
b1 k
b101101 :"
1:
#11750000
0:
#11775000
1D
b0 k
1:
#11800000
0:
#11825000
1y
1!
0%
0D
1p
b1100 v
b100 k
b101110 :"
1:
#11850000
0:
#11875000
0y
b11 k
1q
b110 )"
b1001010 ."
1,"
1:
#11900000
0:
#11925000
b10 k
1F
b101111 :"
1:
#11950000
0:
#11975000
b1 k
1:
#12000000
0:
#12025000
1D
b0 k
b110000 :"
1:
#12050000
0:
#12075000
1{
1"
0$
0D
1r
b1101 v
b100 k
1:
#12100000
0:
#12125000
0{
b11 '
b11 m
b0 /"
1-"
0]
b11 k
1t
b110001 :"
1:
#12150000
0:
#12175000
1J
b10 k
1H
1:
#12200000
0:
#12225000
0J
b1 k
1s
b110010 :"
b11 8"
b11 2"
1:
#12250000
0:
#12275000
1D
b0 k
1:
#12300000
0:
#12325000
b10 '
b10 m
0D
1^
0L
b0 v
b100 k
b110011 :"
1:
#12350000
0:
#12375000
b11 k
0^
1:
#12400000
0:
#12425000
b10 k
b110100 :"
b10 8"
b10 2"
1:
#12450000
0:
#12475000
b1 k
1:
#12500000
0:
#12525000
1D
b0 k
b10100101 6"
b10100101 5"
b111 >
b10100110110110001100001011101100110010100100000011011010110010101101101010110110011000001011101001000000110000101100110011101000110010101110010001000000111011101110010011010010111010001100101 7"
b10 ;
1:
#12550000
0:
#12575000
0D
b100 k
1:
#12600000
0:
#12625000
b11 k
1:
#12650000
0:
#12675000
b10 k
1:
#12700000
0:
#12725000
b1 k
1:
#12750000
0:
#12775000
1D
b0 k
1:
#12800000
0:
#12825000
0D
b100 k
1:
#12850000
0:
#12875000
b11 k
1:
#12900000
0:
#12925000
b10 k
1:
#12950000
0:
#12975000
b1 k
1:
#13000000
0:
#13025000
1D
b0 k
1:
#13050000
0:
#13075000
0D
b100 k
1:
#13100000
0:
#13125000
b11 k
1:
#13150000
0:
#13175000
b10 k
1:
#13200000
0:
#13225000
b1 k
1:
#13250000
0:
#13275000
1D
b0 k
1:
#13300000
0:
#13325000
0D
b100 k
1:
#13350000
0:
#13375000
b11 k
1:
#13400000
0:
#13425000
b10 k
1:
#13450000
0:
#13475000
b1 k
1:
#13500000
0:
#13525000
1D
b10100101 '
b10100101 m
b0 k
19
b10010001 8
b10010001 K
b1000 7
b1000 A
1:
b10010001 4"
b1000 3"
#13550000
0:
#13575000
b10010001 '
b10010001 m
0D
b10010001 w
b100 k
09
b1001 4"
b10000 3"
1:
#13600000
0:
#13625000
b0 '
b0 m
b11 k
19
b1001 8
b1001 K
b10000 7
b10000 A
1:
#13650000
0:
#13675000
b1001 '
b1001 m
1c
1a
b10 k
09
b1 8"
b0 :"
1:
#13700000
0:
#13725000
b11 '
b11 m
0c
0a
0i
1L
b1 v
b1 k
b10100 7
b10100 A
1:
#13750000
0:
#13775000
1D
b0 k
b1 :"
b11 8"
b11 2"
1:
#13800000
0:
#13825000
1C
0D
b10 v
b100 k
1:
#13850000
0:
#13875000
1z
0"
1$
0r
b11 k
b10 :"
1:
#13900000
0:
#13925000
0z
b0 ."
b111 )"
b1 /"
0-"
b10 k
0t
1:
#13950000
0:
#13975000
1I
b1 k
0H
b11 :"
1:
#14000000
0:
#14025000
0I
b10011 '
b10011 m
1D
1]
b0 k
0s
1:
#14050000
0:
#14075000
1x
0!
1%
0C
0D
b111 \
b10010001 u
b11 v
0p
b100 k
b100 :"
b10011 8"
b10011 2"
1:
#14100000
0:
#14125000
1"
0$
0x
0,"
1r
b11 k
0q
1:
#14150000
0:
#14175000
b10 k
0F
1t
1-"
b101 :"
1:
#14200000
0:
#14225000
b1 k
1H
1:
#14250000
0:
#14275000
1D
b0 k
1s
b110 :"
1:
#14300000
0:
#14325000
1C
0D
b100 v
b100 k
1:
#14350000
0:
#14375000
1y
1!
0%
1p
b11 k
b111 :"
1:
#14400000
0:
#14425000
0y
b110 )"
b1 ."
1,"
b10 k
1q
1:
#14450000
0:
#14475000
b1 k
1F
b1000 :"
1:
#14500000
0:
#14525000
1D
b0 k
1:
#14550000
0:
#14575000
1x
0!
1%
0C
0D
b100010 u
b110 \
b11 v
0p
b100 k
b1001 :"
1:
#14600000
0:
#14625000
0"
1$
0x
0,"
0r
b11 k
0q
1:
#14650000
0:
#14675000
b10 k
0F
0t
0-"
b1010 :"
1:
#14700000
0:
#14725000
b1 k
0H
1:
#14750000
0:
#14775000
1D
b0 k
0s
b1011 :"
1:
#14800000
0:
#14825000
1C
0D
b100 v
b100 k
1:
#14850000
0:
#14875000
1y
1!
0%
1p
b11 k
b1100 :"
1:
#14900000
0:
#14925000
0y
b101 )"
b10 ."
1,"
b10 k
1q
1:
#14950000
0:
#14975000
b1 k
1F
b1101 :"
1:
#15000000
0:
#15025000
1D
b0 k
1:
#15050000
0:
#15075000
1x
0!
1%
0C
0D
b1000100 u
b101 \
b11 v
0p
b100 k
b1110 :"
1:
#15100000
0:
#15125000
0x
0,"
b11 k
0q
1:
#15150000
0:
#15175000
b10 k
0F
b1111 :"
1:
#15200000
0:
#15225000
b1 k
1:
#15250000
0:
#15275000
1D
b0 k
b10000 :"
1:
#15300000
0:
#15325000
1C
0D
b100 v
b100 k
1:
#15350000
0:
#15375000
1y
1!
0%
1p
b11 k
b10001 :"
1:
#15400000
0:
#15425000
0y
b100 )"
b100 ."
1,"
b10 k
1q
1:
#15450000
0:
#15475000
b1 k
1F
b10010 :"
1:
#15500000
0:
#15525000
1D
b0 k
1:
#15550000
0:
#15575000
1x
0!
1%
0C
0D
b10001000 u
b100 \
b11 v
0p
b100 k
b10011 :"
1:
#15600000
0:
#15625000
1"
0$
0x
0,"
1r
b11 k
0q
1:
#15650000
0:
#15675000
b10 k
0F
1t
1-"
b10100 :"
1:
#15700000
0:
